Small Area Estimation for Urban Analytics - Worked Example
…
covariates_msoa <- list(
  msoa_density,
  msoa_population,
  msoa_travel,
  msoa_cars,
  msoa_deprivation,
  msoa_health
) |>
  purrr::reduce(left_join, by = "domain_id")

covariates_msoa

# A tibble: 408 × 11
   domain_id domain_name          cov_pop_density cov_total_population
   <chr>     <chr>                          <dbl>                <dbl>
 1 W02000001 Isle of Anglesey 001            62.8                 8402
 2 W02000002 Isle of Anglesey 002            53.1                 6367
 3 W02000003 Isle of Anglesey 003          2298.                 10633
 4 W02000004 Isle of Anglesey 004            99.2                 7401
 5 W02000005 Isle of Anglesey 005           100                   8165
 6 W02000006 Isle of Anglesey 006           152.                  7042
 7 W02000007 Isle of Anglesey 007            68.5                 6894
 8 W02000008 Isle of Anglesey 008           831.                  5951
 9 W02000009 Isle of Anglesey 009            55.9                 8035
10 W02000010 Gwynedd 001                   3112.                  8626
# ℹ 398 more rows
# ℹ 7 more variables: cov_share_car_commute <dbl>, cov_share_bus_commute <dbl>,
#   cov_share_commute_bikewalk <dbl>, cov_share_hh_nocar <dbl>,
#   cov_share_hh_withcar <dbl>, cov_share_hh_deprived <dbl>,
#   cov_share_good_health <dbl>
…
