Small Area Estimation for Urban Analytics - Data Preparation
…
survey_domains |>
  count(domain_id, name = "sample_n") |>
  arrange(domain_id)

# A tibble: 22 × 2
   domain_id sample_n
   <chr>        <int>
 1 W06000001      368
 2 W06000002      465
 3 W06000003      379
 4 W06000004      319
 5 W06000005      467
 6 W06000006      397
 7 W06000008      325
 8 W06000009      409
 9 W06000010      573
10 W06000011      749
# ℹ 12 more rows
…
domain_sizes |>
  arrange(domain_id)

# A tibble: 22 × 3
   domain_id domain_name      domain_size
   <chr>     <chr>                  <dbl>
 1 W06000001 Isle of Anglesey       57146
 2 W06000002 Gwynedd                97974
 3 W06000003 Conwy                  96364
 4 W06000004 Denbighshire           78907
 5 W06000005 Flintshire            127581
 6 W06000006 Wrexham               110270
 7 W06000008 Ceredigion             61387
 8 W06000009 Pembrokeshire         102555
 9 W06000010 Carmarthenshire       155484
10 W06000011 Swansea               197864
# ℹ 12 more rows
…
